[
	{
		"title" : "Love",
		"description" : "\"You say you love rain, but you use an umbrella to walk under it.\n\nYou say you love sun, but you seek shelter when it is shining.\n\nYou say you love wind, but when it comes, you close your window.\n\nSo that's why I'm scared when you say you love me.\"\n\n\t\t\t\t\t\tBob Marley",
		"imageName" : "grouplistLove",
		"items" : [
			{
				"author" : "Aristotle",
				"favorite" : false,
				"imageName" : "Aristotel400",
				"rating" : 9,
				"bortTitle" : "He was born in 384 BCE.",
				"quote" : "\"Love is composed of a single soul inhabiting two bodies."
				
			},
			{
				"author" : "Robert Heinlein",
				"favorite" : false,
				"imageName" : "Heinlain400",
				"rating" : 8,
				"bortTitle" : "He was born in 1907.",
				"quote" : "\"Love is that condition in which the happiness of another person is essential toyour own."
				
			},
			{
				"author" : "Albert Einstein",
				"favorite" : false,
				"imageName" : "Einstein400",
				"rating" : 6,
				"bortTitle" : "He was born in 1879.",
				"quote" : "\"Gravitation is not responsible for people falling in love."
				
			},
			{
				"author" : "Jeremy Taylor",
				"favorite" : false,
				"imageName" : "Taylor400",
				"rating" : 6,
				"bortTitle" : "He was born in 1613.",
				"quote" : "\"Love is friendship, set on fire."
				
			},
			{
				"author" : "Elizabeth Browning",
				"favorite" : false,
				"imageName" : "Browning400",
				"rating" : 8,
				"bortTitle" : "She was born in 1806.",
				"quote" : "\"Love doesn’t make the world go round, love is what makes the ride worthwhile."
				
			},
			{
				"author" : "Friedrich Nietzsche",
				"favorite" : false,
				"imageName" : "Nietzcher400",
				"rating" : 6,
				"bortTitle" : "He was born in 1844.",
				"quote" : "\"It is not a lack of love, but a lack of friendship that makes unhappy marriages."
				
			},
			{
				"author" : "Jean Anouilh",
				"favorite" : false,
				"imageName" : "jean400",
				"rating" : 8,
				"bortTitle" : "He was born in 1910.",
				"quote" : "\"Love is, above all else, the gift of oneself."
				
			},
			{
				"author" : "Mark Twain",
				"favorite" : false,
				"imageName" : "Twain400",
				"rating" : 9,
				"bortTitle" : "He was born in 1835.",
				"quote" : "\"Love is the irresistible desire to be irresistibly desired."
				
			},
			{
				"author" : "Lord Byron",
				"favorite" : false,
				"imageName" : "Byron400",
				"rating" : 6,
				"bortTitle" : "He was born in 1788.",
				"quote" : "\"Friendship may, and often does, grow into love, but love never subsides into friendship."
				
			},
			{
				"author" : "Maya Angelou",
				"favorite" : false,
				"imageName" : "Angelou400",
				"rating" : 8,
				"bortTitle" : "She was born in 1928.",
				"quote" : "\"Love is like a virus.It can happen to anybody at any time."
				
			},
			{
				"author" : "Antuan De Sent Exupery",
				"favorite" : false,
				"imageName" : "Excury400",
				"rating" : 8,
				"bortTitle" : "He was born in 1900.",
				"quote" : "\"True love begins when nothing is looked for in return."
				
			},
			{
				"author" : "William Shakespeare",
				"favorite" : false,
				"imageName" : "Shakespeare400",
				"rating" : 9,
				"bortTitle" : "He was born in 1564.",
				"quote" : "\"Love all, trust a few, do wrong to none."
				
			}
		]
	},
	{
		"title" : "Wisdom",
		"description" : "\"I ask not for any crown\n\nBut that which all may win.\n\nNor try to conquer any world\n\nExcept the one within.\"\n\n\t\tLouisa May Alcott",
		"imageName" : "grouplistWisdom",
		"items" : [
		{
				"author" : "Eleanor Roosevelt",
				"favorite" : false,
				"imageName" : "Eleanor400",
				"rating" : 8,
				"bortTitle" : "She was born in 1884.",
				"quote" : "\"No one can make you feel inferior without your consent."
				
			},
			{
				"author" : "William Shakespeare",
				"favorite" : false,
				"imageName" : "Shakespere400",
				"rating" : 6,
				"bortTitle" : "He was born in 1564.",
				"quote" : "\"The fool doth think he is wise, but the wise man knows himself to be a fool."
				
			},
			{
				"author" : "Mark Twain",
				"favorite" : false,
				"imageName" : "Twain400",
				"rating" : 8,
				"bortTitle" : "He was born in 1835.",
				"quote" : "\"Whenever you find yourself on the side of the majority, it is time to pause and reflect."
				
			},
			{
				"author" : "Aristotle",
				"favorite" : false,
				"imageName" : "Aristotel400",
				"rating" : 10,
				"bortTitle" : "He was born in 384 BCE.",
				"quote" : "\"Knowing yourself is the beginning of all wisdom."
				
			},
			{
				"author" : "Socrates",
				"favorite" : false,
				"imageName" : "Socrat400",
				"rating" : 9,
				"bortTitle" : "He was born in 470 BCE.",
				"quote" : "\"The only true wisdom is in knowing you know nothing."
				
			},
			{
				"author" : "Isaac Asimov",
				"favorite" : false,
				"imageName" : "Acimov400",
				"rating" : 9,
				"bortTitle" : "He was born in  1920.",
				"quote" : "\"The saddest aspect of life right now is that science gathers knowledge faster than society gathers wisdom."
				
			},
			{
				"author" : "John Lennon",
				"favorite" : false,
				"imageName" : "Lenon400",
				"rating" : 10,
				"bortTitle" : "He was born in 1940.",
				"quote" : "\"Count your age by friends, not years. Count your life by smiles, not tears."
				
			},
			{
				"author" : "Langston Hughes",
				"favorite" : false,
				"imageName" : "Langston400",
				"rating" : 8,
				"bortTitle" : "He was born in 1902.",
				"quote" : "\"Hold fast to dreams, for if dreams die life is a broken-winged bird, that cannot fly."
				
			},
			{
				"author" : "Jonathan Swift",
				"favorite" : false,
				"imageName" : "Swift400",
				"rating" : 9,
				"bortTitle" : "He was born in 1667.",
				"quote" : "\"May you live every day of your life."
				
			},
			{
				"author" : "Aristotle",
				"favorite" : false,
				"imageName" : "Aristotel400",
				"rating" : 8,
				"bortTitle" : "He was born in 384 BCE.",
				"quote" : "\"It is the mark of an educated mind to be able to entertain a thought without accepting it."
				
			},
			{
				"author" : "Paulo Coelho",
				"favorite" : false,
				"imageName" : "Coelho400",
				"rating" : 10,
				"bortTitle" : "He was born in 1947.",
				"quote" : "\"The secret of life, though, is to fall seven times and to get up eight times."
			},
			{
				"author" : "Confucius",
				"favorite" : false,
				"imageName" : "Confucious400",
				"rating" : 9,
				"bortTitle" : "He was born in 551 BCE.",
				"quote" : "\"By three methods we may learn wisdom: First, by reflection, which is noblest.Second, by imitation, which is easiest.And third by experience, which is the bitterest."
				
			}
			
		]
	},
	{
		"title" : "Success",
		"description" : "\"Success is not the triumph over regress,\nSuccess is the power to suppress.\nSuccess is not the money or the fame,\nSuccess is, knowing you are still the same.\nSuccess is not the power or the pride.\nSuccess is the knowing how to hide.\nSuccess is not a gift or gain,\nSuccess is accepting and believing in your name.\"\n\t\t\t\tJeff Rushton",
		"imageName" : "grouplistSuccess",
		"items" : [
		{
				"author" : "Henry Ford",
				"favorite" : false,
				"imageName" : "Ford400",
				"rating" : 9,
				"bortTitle" : "He was born in 1863.",
				"quote" : "\"Failure is simply the opportunity to begin again, this time more intelligently"
				
			},
			{
				"author" : "Winston Churchill",
				"favorite" : false,
				"imageName" : "Winston400",
				"rating" : 8,
				"bortTitle" : "He was born in 1874.",
				"quote" : "\"Success is walking from failure to failure with no loss of enthusiasm."
				
			},
			{
				"author" : "Bill Cosby",
				"favorite" : false,
				"imageName" : "Cosby400",
				"rating" : 9,
				"bortTitle" : "He was born in 1937.",
				"quote" : "\"I don’t know the key to success, but the key to failure is trying to please everybody."
				
			},
			{
				"author" : "Theodore Roosevelt",
				"favorite" : false,
				"imageName" : "Rosevelt400",
				"rating" : 7,
				"bortTitle" : "He was born in 1858.",
				"quote" : "\"It is hard to fail, but it is worse never to have tried to succeed."
				
			},
			{
				"author" : "Woody Allen",
				"favorite" : false,
				"imageName" : "WAllen400",
				"rating" : 7,
				"bortTitle" : "He was born in 1935.",
				"quote" : "\"Eighty percent of success is showing up."
				
			},
			{
				"author" : "Benjamin Franklin",
				"favorite" : false,
				"imageName" : "Franclin400",
				"rating" : 10,
				"bortTitle" : "He was born in 1706.",
				"quote" : "\"Never leave that till tomorrow which you can do today."
				
			},
			{
				"author" : "David Allen",
				"favorite" : false,
				"imageName" : "Allen400",
				"rating" : 7,
				"bortTitle" : "He was born in 1945.",
				"quote" : "\"You can do anything, but not everything."
				
			},
			{
				"author" : "Aristotle",
				"favorite" : false,
				"imageName" : "Aristotele400",
				"rating" : 6,
				"bortTitle" : "He was born in 384 BCE.",
				"quote" : "\"We are what we repeatedly do. Excellence then is not an act but a habit."
				
			},
			{
				"author" : "Thomas Edison",
				"favorite" : false,
				"imageName" : "Edison400",
				"rating" : 8,
				"bortTitle" : "He was born in 1847.",
				"quote" : "\"Opportunity is missed by most people, because it is dressed in overalls and looks like work."
				
			},
			{
				"author" : "Sven Goran Eriksson",
				"favorite" : false,
				"imageName" : "Sven400",
				"rating" : 9,
				"bortTitle" : "He was born in 1948.",
				"quote" : "\"The greatest barrier to success is the fear of failure."
				
			},
			{
				"author" : "Nelson Mandela",
				"favorite" : false,
				"imageName" : "Manddela400",
				"rating" : 9,
				"bortTitle" : "He was born in 1918.",
				"quote" : "\"Money won’t create success.The freedom to make it will."
				
			},
			{
				"author" : "Warren Buffett",
				"favorite" : false,
				"imageName" : "Buffen400",
				"rating" : 7,
				"bortTitle" : "He was born in 1930.",
				"quote" : "\"I will tell you how to become rich.Close the doors.Be fearful when others aregreedy.Be greedy when others are fearful."
				
			}
			
		]
	},
		
	{
		"title" : "Friendship",
		"description" : "\"I think we are and will always\nbe lonely people in a lonely\nworld under lonely stars.\nWe can never starve our loneliness.\nWe can only hope that by the\ncompany of others,\nit doesn't devour us.\"\n\t\t\tTesty McTesterson",
		"imageName" : "grouplistFriendship",
		"items" : [
		{
				"author" : "Clive Staples Lewis",
				"favorite" : false,
				"imageName" : "Lewis400",
				"rating" : 10,
				"bortTitle" : "He was born in 1898.",
				"quote" : "\"Friendship is born at that moment when one man says to another:What! You too?I thought that no one but myself..."
				
			},
			{
				"author" : "Albert Camus",
				"favorite" : false,
				"imageName" : "Camus400",
				"rating" : 7,
				"bortTitle" : "He was born in 1913.",
				"quote" : "\"Don't walk behind me I may not lead.Don't walk in front of me I may not follow.Just walk beside me and be my friend."
				
			},
			{
				"author" : "Elbert Hubbard",
				"favorite" : false,
				"imageName" : "Hubbard400",
				"rating" : 8,
				"bortTitle" : "He was born in 1856.",
				"quote" : "\"A friend is someone who knows all about you and still loves you."
				
			},
			{
				"author" : "Mark Twain",
				"favorite" : false,
				"imageName" : "Twain400",
				"rating" : 9,
				"bortTitle" : "He was born in 1835.",
				"quote" : "\"Good friends, good books, and a sleepy conscience: this is the ideal life."
				
			},
			{
				"author" : "Alan Alexander Milne",
				"favorite" : false,
				"imageName" : "Mline400",
				"rating" : 8,
				"bortTitle" : "He was born in 1882.",
				"quote" : "\"If you live to be a hundred, I want to live to be a hundred minus one day so I never have to live without you."
				
			},
			{
				"author" : "Bob Marley",
				"favorite" : false,
				"imageName" : "Marley400",
				"rating" : 8,
				"bortTitle" : "He was born in 1945.",
				"quote" : "\"The truth is, everyone is going to hurt you. You just got to find the ones worth suffering for."
				
			},
			{
				"author" : "Marlene Dietrich",
				"favorite" : false,
				"imageName" : "Marlene400",
				"rating" : 9,
				"bortTitle" : "She was born in 1901.",
				"quote" : "\"It's the friends you can call up at 4 a.m. that matter."
				
			},
			{
				"author" : "Alan Alexander Milne",
				"favorite" : false,
				"imageName" : "Mline400",
				"rating" : 9,
				"bortTitle" : "He was born in 1882.",
				"quote" : "\"We'll be Friends Forever, won't we, Pooh?'asked Piglet.Even longer,'Pooh answered."
				
			},
			{
				"author" : "Alan Alexander Milne",
				"favorite" : false,
				"imageName" : "Mline400",
				"rating" : 7,
				"bortTitle" : "He was born in 1882.",
				"quote" : "\"Piglet sidled up to Pooh from behind.Pooh?-he whispered.Yes, Piglet?Nothing,- said Piglet,taking Pooh's hand.I just wanted to be sure of you."
				
			},
			{
				"author" : "Muhammad Ali",
				"favorite" : false,
				"imageName" : "Ali400",
				"rating" : 6,
				"bortTitle" : "He was born in 1942.",
				"quote" : "\"Friendship is the hardest thing in the world to explain.It's not something you learn in school.But if you haven't learned the meaning of friendship, you really haven't learned anything."
				
			},
			{
				"author" : "Richelle Mead",
				"favorite" : false,
				"imageName" : "Mead400",
				"rating" : 7,
				"bortTitle" : "She was born in 1976.",
				"quote" : "\"Only a true best friend can protect you from your immortal enemies."
				
			},
			{
				"author" : "Irving Stone",
				"favorite" : false,
				"imageName" : "Irving400",
				"rating" : 7,
				"bortTitle" : "He was born in 1903.",
				"quote" : "\"There are no faster or firmer friendships than those formed between people who love the same books."
				
			}
			
		]
	},
	{
		"title" : "Inspirational",
		"description" : "\"Congratulations!\n\nToday is your day.\n\nYou're off to Great Places!\n\nYou're off and away!\"\n\n\t\tDr. Seuss",
		"imageName" : "grouplistInspirational",
		"items" : [
		{
				"author" : "Oscar Wilde",
				"favorite" : false,
				"imageName" : "Oscar400",
				"rating" : 10,
				"bortTitle" : "He was born in 1854.",
				"quote" : "\"Be yourself, everyone else is already taken."
				
			},
			{
				"author" : "William Purkey",
				"favorite" : false,
				"imageName" : "Purkey400",
				"rating" : 10,
				"bortTitle" : "He was born in 1929.",
				"quote" : "\"You've gotta dance like there's nobody watching,love like you'll never be hurt,sing like there's nobody listening,and live like it's heaven on earth"
				
			},
			{
				"author" : "Mahatma Gandhi",
				"favorite" : false,
				"imageName" : "Gandi400",
				"rating" : 8,
				"bortTitle" : "He was born in 1869.",
				"quote" : "\"Be the change that you wish to see in the world."
				
			},
			{
				"author" : "Mahatma Gandhi",
				"favorite" : false,
				"imageName" : "Gandi400",
				"rating" : 9,
				"bortTitle" : "He was born in 1869.",
				"quote" : "\"Live as if you were to die tomorrow.Learn as if you were to live forever."
				
			},
			{
				"author" : "Martin Luther King",
				"favorite" : false,
				"imageName" : "King400",
				"rating" : 10,
				"bortTitle" : "He was born in 1929.",
				"quote" : "\"Darkness cannot drive out darkness:only light can do that.Hate cannot drive out hate:only love can do that"
				
			},
			{
				"author" : "Friedrich Nietzsche",
				"favorite" : false,
				"imageName" : "Neitshe400",
				"rating" : 6,
				"bortTitle" : "He was born in 1844.",
				"quote" : "\"Without music, life would be a mistake."
				
			},
			{
				"author" : "Stephen Chbosky",
				"favorite" : false,
				"imageName" : "Stephen400",
				"rating" : 7,
				"bortTitle" : "He was born in 1970.",
				"quote" : "\"We accept the love we think we deserve."
				
			},
			{
				"author" : "Marilyn Monroe",
				"favorite" : false,
				"imageName" : "Monro400",
				"rating" : 8,
				"bortTitle" : "She was born in 1926.",
				"quote" : "\"Imperfection is beauty, madness is genius and it's better to be absolutely ridiculous than absolutely boring."
				
			},
			{
				"author" : "Albert Einstein",
				"favorite" : false,
				"imageName" : "Albert400",
				"rating" : 10,
				"bortTitle" : "He was born in 1879.",
				"quote" : "\"There are only two ways to live your life.One is as though nothing is a miracle.The other is as though everything is a miracle."
				
			},
			{
				"author" : "Bil Keane",
				"favorite" : false,
				"imageName" : "BilKaene400",
				"rating" : 10,
				"bortTitle" : "He was born in 1922.",
				"quote" : "\"Yesterday is history,tomorrow is a mystery,today is a gift of God,which is why we call it the present."
				
			},
			{
				"author" : "Oscar Wilde",
				"favorite" : false,
				"imageName" : "Oscar400",
				"rating" : 8,
				"bortTitle" : "He was born in 1854.",
				"quote" : "\"We are all in the gutter, but some of us are looking at the stars."
				
			},
			{
				"author" : "Thomas Edison",
				"favorite" : false,
				"imageName" : "Edison400",
				"rating" : 10,
				"bortTitle" : "He was born in 1847.",
				"quote" : "\"I have not failed. I've just found 10,000 ways that won't work."
				
			}
			
		]
	},
	{
		"title" : "Family",
		"description" : "\"I may not always be with you\n\nBut when we're far apart\n\nRemember you will be with me\n\nRight inside my heart.\"\n\n\t\t\tMarc Wambolt",
		"imageName" : "grouplistFamily",
		"items" : [
		{
				"author" : "Lee Iacocca",
				"favorite" : false,
				"imageName" : "Laccota400",
				"rating" : 9,
				"bortTitle" : "He was born in 1924.",
				"quote" : "\"The only rock I know that stays steady, the only institution I know that works is the family."
				
			},
			{
				"author" : "George Burns",
				"favorite" : false,
				"imageName" : "Warren400",
				"rating" : 8,
				"bortTitle" : "He was born in 1896.",
				"quote" : "\"Happiness is having a large, loving, caring, close-knit family in another city."
				
			},
			{
				"author" : "George Bernard Shaw",
				"favorite" : false,
				"imageName" : "Shaw400",
				"rating" : 9,
				"bortTitle" : "He was born in 1856.",
				"quote" : "\"A happy family is but an earlier heaven."
				
			},
			{
				"author" : "Bill Cosby",
				"favorite" : false,
				"imageName" : "Cosby400",
				"rating" : 7,
				"bortTitle" : "He was born in 1937.",
				"quote" : "\"You know the only people who are always sure about the proper way to raise children?Those who’ve never had any."
				
			},
			{
                "author" : "Trey Parker",
				"favorite" : false,
				"imageName" : "Parker400",
				"rating" : 8,
				"bortTitle" : "He was born in 1969.",
				"quote" : "\"Family isn’t about whose blood you have.It’s about who you care about."
				
			},
			{
				"author" : "Leo Tolstoy",
				"favorite" : false,
				"imageName" : "Leo400",
				"rating" : 6,
				"bortTitle" : "He was born in 1828.",
				"quote" : "\"All happy families resemble one another.Each unhappy family is unhappy in its own way."
				
			},
			{
				"author" : "Pope John Paul II",
				"favorite" : false,
				"imageName" : "John400",
				"rating" : 7,
				"bortTitle" : "He was born in 1920.",
				"quote" : "\"As the family goes, so goes the nation and so goes the whole world in which we live."
				
			},
			{
				"author" : "George Bernard Shaw",
				"favorite" : false,
				"imageName" : "Shaw400",
				"rating" : 8,
				"bortTitle" : "He was born in 1856.",
				"quote" : "\"If you cannot get rid of the family skeleton, you may as well make it dance."
				
			},
			{
				"author" : "Charles Kuralt",
				"favorite" : false,
				"imageName" : "Kuralt400",
				"rating" : 9,
				"bortTitle" : "He was born in 1934.",
				"quote" : "\"The love of family and the admiration of friends is much more important than wealth and privilege."
				
			},
			{
				"author" : "Barbara Bush",
				"favorite" : false,
				"imageName" : "Barbara400",
				"rating" : 7,
				"bortTitle" : "She was born in 1925.",
				"quote" : "\"To us, family means putting your arms around each other and being there."
				
			},
			{
				"author" : "Alex Haley",
				"favorite" : false,
				"imageName" : "Haley400",
				"rating" : 9,
				"bortTitle" : "He was born in 1921.",
				"quote" : "\"In every conceivable manner, the family is link to our past, bridge to our future."
				
			},
			{
				"author" : "Aishwarya Rai Bachchan",
				"favorite" : false,
				"imageName" : "Raavan400",
				"rating" : 9,
				"bortTitle" : "She was born in 1973.",
				"quote" : "\"My family is my strength and my weakness."
				
			}
			
		]
	},
	{
		"title" : "Life",
		"description" : "\"If you're reading this...\n\nCongratulations, you're alive.\n\nIf that's not something to smile about,\n\nthen I don't know what is.\"\n\n\t\t\t\tChad Sugg",
		"imageName" : "grouplistLife",
		"items" : [
		{
				"author" : "Dr. Seuss",
				"favorite" : false,
				"imageName" : "Dr400",
				"rating" : 9,
				"bortTitle" : "He was born in 1904.",
				"quote" : "Don't cry because it's over, smile because it happened."
				
			},
			{
				"author" : "Mae West",
				"favorite" : false,
				"imageName" : "West400",
				"rating" : 10,
				"bortTitle" : "She was born in 1893.",
				"quote" : "\"You only live once,but if you do it right,once is enough."
				
			},
			{
				"author" : "Robert Frost",
				"favorite" : false,
				"imageName" : "Frost400",
				"rating" : 7,
				"bortTitle" : "He was born in 1874.",
				"quote" : "\"In three words I can sum up everything I've learned about life: it goes on."
				
			},
			{
				"author" : "Oscar Wilde",
				"favorite" : false,
				"imageName" : "Oscar400",
				"rating" : 10,
				"bortTitle" : "He was born in 1854.",
				"quote" : "\"To live is the rarest thing in the world. Most people exist, that is all."
				
			},
			{
				"author" : "Andre Gide",
				"favorite" : false,
				"imageName" : "Gide400",
				"rating" : 7,
				"bortTitle" : "He was born in 1869.",
				"quote" : "\"It is better to be hated for what you are than to be loved for what you are not."
				
			},
			{
				"author" : "Allen Saunders",
				"favorite" : false,
				"imageName" : "Saunders400",
				"rating" : 9,
				"bortTitle" : "He was born in 1899.",
				"quote" : "\"Life is what happens to you while you're busy making other plans."
				
			},
			{
				"author" : "Mark Twain",
				"favorite" : false,
				"imageName" : "Twain400",
				"rating" : 9,
				"bortTitle" : "He was born in 1835.",
				"quote" : "\"Good friends, good books, and a sleepy conscience: this is the ideal life."
				
			},
			{
				"author" : "J.K. Rowling",
				"favorite" : false,
				"imageName" : "Rowling400",
				"rating" : 8,
				"bortTitle" : "She was born in 1965.",
				"quote" : "\"It does not do to dwell on dreams and forget to live."
				
			},
			{
				"author" : "Douglas Adams",
				"favorite" : false,
				"imageName" : "Douglas400",
				"rating" : 8,
				"bortTitle" : "He was born in 1952.",
				"quote" : "\"I may not have gone where I intended to go, but I think I have ended up where I needed to be."
				
			},
			{
				"author" : "Dr. Seuss",
				"favorite" : false,
				"imageName" : "Dr400",
				"rating" : 7,
				"bortTitle" : "He was born in 1904.",
				"quote" : "\"Today you are You,that is truer than true. There is no one alive who is Your than You."
				
			},
			{
				"author" : "Pablo Picasso",
				"favorite" : false,
				"imageName" : "Picasso400",
				"rating" : 10,
				"bortTitle" : "He was born in 1881.",
				"quote" : "\"Everything you can imagine is real."
				
			},
			{
				"author" : "Woody Allen",
				"favorite" : false,
				"imageName" : "Woody400",
				"rating" : 8,
				"bortTitle" : "He was born in 1935.",
				"quote" : "\"I'm not afraid of death. I just don't want to be there when it happens."
				
			}
			
		]
	}
]
